{
    "/theme/css/custom.css": "/theme/css/custom.css",
    "/theme/js/custom.js": "/theme/js/custom.js",
    "/css/all.css": "/css/all.css",
    "/js/all.js": "/js/all.js",
    "/js/custom-all.js": "/js/custom-all.js",
    "/js/page-script.js": "/js/page-script.js",
    "/css/custom-all.css": "/css/custom-all.css",
    "/css/theme.css": "/css/theme.css"
}
